{
  "$schema": "https://developer.microsoft.com/json-schemas/spfx-build/package-solution.schema.json",
  "solution": {
    "name": "hello-world-client-side-solution",
    "id": "3482b1bf-60b4-4d3a-9bad-517301ab39a6",
    "version": "1.0.0.0",
    "includeClientSideAssets": true,
    "isDomainIsolated": false
  },
  "paths": {
    "zippedPackage": "solution/hello-world.sppkg"
  }
}
