{
  // "$schema": "https://developer.microsoft.com/json-schemas/spfx/client-side-web-part-manifest.schema.json",
  "id": "fec7b5b3-0ca6-4ae1-886f-4dcce6027ed4",
  "alias": "HelloWorldWebPart",
  "componentType": "WebPart",

  "version": "*",
  "manifestVersion": 2,

  "requiresCustomScript": false,
  "supportedHosts": ["SharePointWebPart"],

  "preconfiguredEntries": [{
    "groupId": "5c03119e-3074-46fd-976b-c60198311f70", // Other
    "group": { "default": "Other" },
    "title": { "default": "HelloWorld" },
    "description": { "default": "HelloWorld description" },
    "officeFabricIconFontName": "Page",
    "properties": {
      "description": "HelloWorld"
    }
  }]
}
